{
  "date_days_rank": 60,
  "tooltip_message": "Mensaje del tooltip",
  "inputs": [
    {
      "name": ""
    }
  ],
  "error_messages": 
    {
      "service_address": 
        {
          "required": "Please select one option"
        },
      "account_number": 
        {
          "required": "Account number is required",
          "minlength": "Min 10",
          "maxlength": "Max 10"
        }
    }
  
}
